<svg width="28" height="28" viewBox="0 0 28 28" fill="none" xmlns="http://www.w3.org/2000/svg">
<rect x="1" y="1" width="26" height="26" rx="3" fill="white" stroke="#E6E6E9"/>
<rect x="8" y="19" width="13" height="1" fill="#808080"/>
<rect x="8" y="14" width="13" height="1" fill="#808080"/>
<rect x="8" y="9" width="13" height="1" fill="#808080"/>
</svg>
