<svg width="28" height="28" viewBox="0 0 28 28" fill="none" xmlns="http://www.w3.org/2000/svg">
<rect x="1" y="1" width="26" height="26" rx="3" fill="white" stroke="#00C48C"/>
<rect x="8.5" y="8.5" width="4" height="4" stroke="#00C48C"/>
<rect x="15.5" y="15.5" width="4" height="4" stroke="#00C48C"/>
<rect x="15.5" y="8.5" width="4" height="4" stroke="#00C48C"/>
<rect x="8.5" y="15.5" width="4" height="4" stroke="#00C48C"/>
</svg>
