<svg width="24" height="24" viewBox="0 0 24 24" fill="none" xmlns="http://www.w3.org/2000/svg">
<rect x="23.75" y="23.75" width="23.5" height="23.5" rx="2.75" transform="rotate(-180 23.75 23.75)" fill="#2F3030" stroke="#4A4A4A" stroke-width="0.5"/>
<path d="M10.1127 16.878C9.97914 16.7333 9.9643 16.5088 10.0681 16.3464L10.1127 16.2887L14.0715 12L10.1127 7.7113C9.97914 7.56666 9.9643 7.34214 10.0681 7.17975L10.1127 7.12204C10.2462 6.9774 10.4534 6.96133 10.6033 7.07383L10.6566 7.12204L14.8873 11.7054C15.0209 11.85 15.0357 12.0745 14.9319 12.2369L14.8873 12.2946L10.6566 16.878C10.5064 17.0407 10.2629 17.0407 10.1127 16.878Z" fill="white" stroke="white" stroke-width="0.8"/>
</svg>
